{
  "annotations": {
    "list": [
      {
        "builtIn": 1,
        "datasource": "-- Grafana --",
        "enable": true,
        "hide": true,
        "iconColor": "rgba(0, 211, 255, 1)",
        "name": "Annotations & Alerts",
        "target": {
          "limit": 100,
          "matchAny": false,
          "tags": [],
          "type": "dashboard"
        },
        "type": "dashboard"
      }
    ]
  },
  "editable": true,
  "gnetId": null,
  "graphTooltip": 0,
  "id": 3,
  "iteration": 1635715461887,
  "links": [],
  "panels": [
    {
      "datasource": "${metrics}",
      "fieldConfig": {
        "defaults": {
          "color": {
            "mode": "thresholds"
          },
          "mappings": [],
          "thresholds": {
            "mode": "absolute",
            "steps": [
              {
                "color": "green",
                "value": null
              },
              {
                "color": "red",
                "value": 80
              }
            ]
          }
        },
        "overrides": []
      },
      "gridPos": {
        "h": 2,
        "w": 3,
        "x": 0,
        "y": 0
      },
      "id": 24,
      "options": {
        "colorMode": "value",
        "graphMode": "area",
        "justifyMode": "auto",
        "orientation": "auto",
        "reduceOptions": {
          "calcs": [
            "lastNotNull"
          ],
          "fields": "",
          "values": false
        },
        "text": {},
        "textMode": "auto"
      },
      "pluginVersion": "8.1.0",
      "targets": [
        {
          "exemplar": true,
          "expr": "mem_total{host=\"$host\",db=\"windows\"} / 1000000000",
          "instant": true,
          "interval": "",
          "legendFormat": "",
          "refId": "A"
        }
      ],
      "title": "Memory",
      "type": "stat"
    },
    {
      "datasource": "${metrics}",
      "fieldConfig": {
        "defaults": {
          "color": {
            "mode": "thresholds"
          },
          "mappings": [],
          "thresholds": {
            "mode": "absolute",
            "steps": [
              {
                "color": "green",
                "value": null
              },
              {
                "color": "red",
                "value": 80
              }
            ]
          }
        },
        "overrides": []
      },
      "gridPos": {
        "h": 2,
        "w": 3,
        "x": 3,
        "y": 0
      },
      "id": 22,
      "options": {
        "colorMode": "value",
        "graphMode": "area",
        "justifyMode": "auto",
        "orientation": "auto",
        "reduceOptions": {
          "calcs": [
            "lastNotNull"
          ],
          "fields": "",
          "values": false
        },
        "text": {},
        "textMode": "auto"
      },
      "pluginVersion": "8.1.0",
      "targets": [
        {
          "exemplar": true,
          "expr": "system_n_cpus{host=\"$host\",db=\"windows\"}",
          "instant": true,
          "interval": "",
          "legendFormat": "",
          "refId": "A"
        }
      ],
      "title": "CPU Count",
      "type": "stat"
    },
    {
      "datasource": "${metrics}",
      "fieldConfig": {
        "defaults": {
          "color": {
            "mode": "thresholds"
          },
          "mappings": [],
          "thresholds": {
            "mode": "absolute",
            "steps": [
              {
                "color": "green",
                "value": null
              },
              {
                "color": "red",
                "value": 80
              }
            ]
          }
        },
        "overrides": []
      },
      "gridPos": {
        "h": 2,
        "w": 4,
        "x": 6,
        "y": 0
      },
      "id": 20,
      "options": {
        "colorMode": "value",
        "graphMode": "area",
        "justifyMode": "auto",
        "orientation": "auto",
        "reduceOptions": {
          "calcs": [
            "lastNotNull"
          ],
          "fields": "",
          "values": false
        },
        "text": {},
        "textMode": "auto"
      },
      "pluginVersion": "8.1.0",
      "targets": [
        {
          "exemplar": true,
          "expr": "(system_uptime{host=\"$host\",db=\"windows\"}) / 86400",
          "interval": "",
          "legendFormat": "",
          "refId": "A"
        }
      ],
      "title": "uptime in days",
      "type": "stat"
    },
    {
      "datasource": "${metrics}",
      "fieldConfig": {
        "defaults": {
          "color": {
            "mode": "thresholds"
          },
          "mappings": [],
          "thresholds": {
            "mode": "absolute",
            "steps": [
              {
                "color": "green",
                "value": null
              }
            ]
          }
        },
        "overrides": []
      },
      "gridPos": {
        "h": 2,
        "w": 10,
        "x": 10,
        "y": 0
      },
      "id": 26,
      "options": {
        "colorMode": "value",
        "graphMode": "area",
        "justifyMode": "auto",
        "orientation": "auto",
        "reduceOptions": {
          "calcs": [
            "lastNotNull"
          ],
          "fields": "",
          "values": false
        },
        "text": {},
        "textMode": "auto"
      },
      "pluginVersion": "8.1.0",
      "targets": [
        {
          "exemplar": true,
          "expr": "disk_total{host=\"$host\",db=\"windows\"} / 1073741824",
          "instant": true,
          "interval": "",
          "legendFormat": "{{path}}",
          "refId": "A"
        }
      ],
      "title": "Disk Size",
      "transformations": [
        {
          "id": "organize",
          "options": {
            "excludeByName": {
              "Time": true
            },
            "indexByName": {},
            "renameByName": {}
          }
        }
      ],
      "type": "stat"
    },
    {
      "datasource": "${metrics}",
      "fieldConfig": {
        "defaults": {
          "color": {
            "mode": "thresholds"
          },
          "mappings": [],
          "thresholds": {
            "mode": "absolute",
            "steps": [
              {
                "color": "green",
                "value": null
              },
              {
                "color": "red",
                "value": 80
              }
            ]
          }
        },
        "overrides": []
      },
      "gridPos": {
        "h": 4,
        "w": 4,
        "x": 20,
        "y": 0
      },
      "id": 12,
      "options": {
        "colorMode": "value",
        "graphMode": "area",
        "justifyMode": "auto",
        "orientation": "auto",
        "reduceOptions": {
          "calcs": [
            "lastNotNull"
          ],
          "fields": "",
          "values": false
        },
        "text": {},
        "textMode": "auto"
      },
      "pluginVersion": "8.1.0",
      "targets": [
        {
          "exemplar": true,
          "expr": "system_load1{host=\"$host\",db=\"windows\"}",
          "interval": "",
          "legendFormat": "",
          "refId": "A"
        }
      ],
      "title": "Load 1",
      "type": "stat"
    },
    {
      "datasource": "${metrics}",
      "fieldConfig": {
        "defaults": {
          "color": {
            "mode": "thresholds"
          },
          "mappings": [],
          "max": 100,
          "min": 0,
          "thresholds": {
            "mode": "absolute",
            "steps": [
              {
                "color": "green",
                "value": null
              },
              {
                "color": "red",
                "value": 80
              }
            ]
          }
        },
        "overrides": []
      },
      "gridPos": {
        "h": 7,
        "w": 6,
        "x": 0,
        "y": 2
      },
      "id": 2,
      "options": {
        "colorMode": "value",
        "graphMode": "area",
        "justifyMode": "auto",
        "orientation": "auto",
        "reduceOptions": {
          "calcs": [
            "lastNotNull"
          ],
          "fields": "",
          "values": false
        },
        "text": {},
        "textMode": "auto"
      },
      "pluginVersion": "8.1.0",
      "targets": [
        {
          "exemplar": true,
          "expr": "100 - cpu_usage_idle{host=\"$host\",db=\"windows\"}",
          "interval": "",
          "legendFormat": "",
          "refId": "A"
        }
      ],
      "title": "CPU Percent",
      "type": "stat"
    },
    {
      "datasource": "${metrics}",
      "fieldConfig": {
        "defaults": {
          "color": {
            "mode": "thresholds"
          },
          "mappings": [],
          "max": 100,
          "min": 0,
          "thresholds": {
            "mode": "absolute",
            "steps": [
              {
                "color": "green",
                "value": null
              },
              {
                "color": "red",
                "value": 80
              }
            ]
          }
        },
        "overrides": []
      },
      "gridPos": {
        "h": 7,
        "w": 7,
        "x": 6,
        "y": 2
      },
      "id": 4,
      "options": {
        "colorMode": "value",
        "graphMode": "area",
        "justifyMode": "auto",
        "orientation": "auto",
        "reduceOptions": {
          "calcs": [
            "lastNotNull"
          ],
          "fields": "",
          "values": false
        },
        "text": {},
        "textMode": "auto"
      },
      "pluginVersion": "8.1.0",
      "targets": [
        {
          "exemplar": true,
          "expr": "mem_used_percent{host=\"$host\",db=\"windows\"}",
          "interval": "",
          "legendFormat": "",
          "refId": "A"
        }
      ],
      "title": "Percent Memory",
      "type": "stat"
    },
    {
      "datasource": "${metrics}",
      "fieldConfig": {
        "defaults": {
          "color": {
            "mode": "thresholds"
          },
          "mappings": [],
          "max": 100,
          "min": 0,
          "thresholds": {
            "mode": "absolute",
            "steps": [
              {
                "color": "green",
                "value": null
              },
              {
                "color": "red",
                "value": 80
              }
            ]
          }
        },
        "overrides": []
      },
      "gridPos": {
        "h": 7,
        "w": 7,
        "x": 13,
        "y": 2
      },
      "id": 6,
      "options": {
        "displayMode": "gradient",
        "orientation": "horizontal",
        "reduceOptions": {
          "calcs": [
            "lastNotNull"
          ],
          "fields": "",
          "values": false
        },
        "showUnfilled": true,
        "text": {
          "valueSize": 100
        }
      },
      "pluginVersion": "8.1.0",
      "targets": [
        {
          "exemplar": true,
          "expr": "disk_used_percent{host=\"$host\",db=\"windows\"}",
          "interval": "",
          "legendFormat": "{{path}}",
          "refId": "A"
        }
      ],
      "title": "disk usage",
      "type": "bargauge"
    },
    {
      "datasource": "${metrics}",
      "fieldConfig": {
        "defaults": {
          "color": {
            "mode": "thresholds"
          },
          "mappings": [],
          "thresholds": {
            "mode": "absolute",
            "steps": [
              {
                "color": "green",
                "value": null
              },
              {
                "color": "red",
                "value": 80
              }
            ]
          }
        },
        "overrides": []
      },
      "gridPos": {
        "h": 4,
        "w": 4,
        "x": 20,
        "y": 4
      },
      "id": 18,
      "options": {
        "colorMode": "value",
        "graphMode": "area",
        "justifyMode": "auto",
        "orientation": "auto",
        "reduceOptions": {
          "calcs": [
            "lastNotNull"
          ],
          "fields": "",
          "values": false
        },
        "text": {},
        "textMode": "auto"
      },
      "pluginVersion": "8.1.0",
      "targets": [
        {
          "exemplar": true,
          "expr": "system_load15{host=\"$host\",db=\"windows\"}",
          "interval": "",
          "legendFormat": "",
          "refId": "A"
        }
      ],
      "title": "Load 15",
      "type": "stat"
    },
    {
      "datasource": "${logs}",
      "fieldConfig": {
        "defaults": {
          "color": {
            "mode": "thresholds"
          },
          "custom": {
            "align": "auto",
            "displayMode": "auto"
          },
          "mappings": [],
          "thresholds": {
            "mode": "absolute",
            "steps": [
              {
                "color": "green",
                "value": null
              },
              {
                "color": "red",
                "value": 80
              }
            ]
          }
        },
        "overrides": []
      },
      "gridPos": {
        "h": 4,
        "w": 4,
        "x": 20,
        "y": 8
      },
      "id": 16,
      "maxDataPoints": null,
      "options": {
        "frameIndex": 0,
        "showHeader": false
      },
      "pluginVersion": "8.1.0",
      "targets": [
        {
          "expr": "{host=\"$host\"}| logfmt |~ \"NAME|VERSION\"",
          "hide": false,
          "instant": false,
          "range": true,
          "refId": "A"
        }
      ],
      "title": "OS Version",
      "transformations": [
        {
          "id": "labelsToFields",
          "options": {
            "valueLabel": "host"
          }
        },
        {
          "id": "organize",
          "options": {
            "excludeByName": {
              "Field": false,
              "Last": false,
              "NAME": false,
              "id": true,
              "sasha.local.mathiasp.me": true,
              "ts": true,
              "tsNs": true
            },
            "indexByName": {},
            "renameByName": {}
          }
        },
        {
          "id": "reduce",
          "options": {
            "reducers": [
              "lastNotNull"
            ]
          }
        },
        {
          "id": "organize",
          "options": {
            "excludeByName": {
              "Field": true
            },
            "indexByName": {},
            "renameByName": {}
          }
        }
      ],
      "type": "table"
    },
    {
      "datasource": "${metrics}",
      "fieldConfig": {
        "defaults": {
          "color": {
            "mode": "palette-classic"
          },
          "custom": {
            "axisLabel": "",
            "axisPlacement": "auto",
            "barAlignment": 0,
            "drawStyle": "line",
            "fillOpacity": 0,
            "gradientMode": "none",
            "hideFrom": {
              "legend": false,
              "tooltip": false,
              "viz": false
            },
            "lineInterpolation": "linear",
            "lineWidth": 1,
            "pointSize": 5,
            "scaleDistribution": {
              "type": "linear"
            },
            "showPoints": "auto",
            "spanNulls": false,
            "stacking": {
              "group": "A",
              "mode": "none"
            },
            "thresholdsStyle": {
              "mode": "off"
            }
          },
          "mappings": [],
          "thresholds": {
            "mode": "absolute",
            "steps": [
              {
                "color": "green",
                "value": null
              },
              {
                "color": "red",
                "value": 80
              }
            ]
          }
        },
        "overrides": []
      },
      "gridPos": {
        "h": 7,
        "w": 10,
        "x": 0,
        "y": 9
      },
      "id": 8,
      "options": {
        "legend": {
          "calcs": [],
          "displayMode": "list",
          "placement": "bottom"
        },
        "tooltip": {
          "mode": "multi"
        }
      },
      "pluginVersion": "8.0.5",
      "targets": [
        {
          "exemplar": true,
          "expr": "deriv(net_bytes_recv{host=\"$host\",db=\"windows\"}) / 1000000",
          "interval": "",
          "legendFormat": "{{interface}}",
          "refId": "A"
        }
      ],
      "title": "Mbytes/sec received",
      "type": "timeseries"
    },
    {
      "datasource": "${metrics}",
      "fieldConfig": {
        "defaults": {
          "color": {
            "mode": "palette-classic"
          },
          "custom": {
            "axisLabel": "",
            "axisPlacement": "auto",
            "barAlignment": 0,
            "drawStyle": "line",
            "fillOpacity": 0,
            "gradientMode": "none",
            "hideFrom": {
              "legend": false,
              "tooltip": false,
              "viz": false
            },
            "lineInterpolation": "linear",
            "lineWidth": 1,
            "pointSize": 5,
            "scaleDistribution": {
              "type": "linear"
            },
            "showPoints": "auto",
            "spanNulls": false,
            "stacking": {
              "group": "A",
              "mode": "none"
            },
            "thresholdsStyle": {
              "mode": "off"
            }
          },
          "mappings": [],
          "thresholds": {
            "mode": "absolute",
            "steps": [
              {
                "color": "green",
                "value": null
              },
              {
                "color": "red",
                "value": 80
              }
            ]
          }
        },
        "overrides": []
      },
      "gridPos": {
        "h": 7,
        "w": 10,
        "x": 10,
        "y": 9
      },
      "id": 10,
      "options": {
        "legend": {
          "calcs": [],
          "displayMode": "list",
          "placement": "bottom"
        },
        "tooltip": {
          "mode": "multi"
        }
      },
      "pluginVersion": "8.0.5",
      "targets": [
        {
          "exemplar": true,
          "expr": "deriv(net_bytes_sent{host=\"$host\",db=\"windows\"}) / 1000000",
          "interval": "",
          "legendFormat": "{{interface}}",
          "refId": "A"
        }
      ],
      "title": "mbytes/sec sent",
      "type": "timeseries"
    },
    {
      "datasource": "${metrics}",
      "fieldConfig": {
        "defaults": {
          "color": {
            "mode": "thresholds"
          },
          "custom": {
            "align": "auto",
            "displayMode": "auto"
          },
          "mappings": [],
          "thresholds": {
            "mode": "absolute",
            "steps": [
              {
                "color": "green",
                "value": null
              },
              {
                "color": "red",
                "value": 80
              }
            ]
          }
        },
        "overrides": []
      },
      "gridPos": {
        "h": 4,
        "w": 4,
        "x": 20,
        "y": 12
      },
      "id": 27,
      "options": {
        "frameIndex": 7,
        "showHeader": false
      },
      "pluginVersion": "8.1.0",
      "targets": [
        {
          "exemplar": true,
          "expr": "win_services_state{db=\"windows\",host=\"$host\"} == 3",
          "interval": "",
          "legendFormat": "",
          "refId": "A"
        }
      ],
      "title": "Failed Services",
      "transformations": [
        {
          "id": "reduce",
          "options": {
            "includeTimeField": false,
            "mode": "reduceFields",
            "reducers": [
              "lastNotNull"
            ]
          }
        },
        {
          "id": "labelsToFields",
          "options": {}
        },
        {
          "id": "organize",
          "options": {
            "excludeByName": {
              "Value": true,
              "active": true,
              "active_code": true,
              "db": true,
              "eren": true,
              "erwin": true,
              "host": true,
              "id": true,
              "load": true,
              "load_code": true,
              "sasha.local.mathiasp.me": true,
              "sub": true,
              "sub_code": true
            },
            "indexByName": {
              "active": 1,
              "active_code": 3,
              "id": 8,
              "load": 4,
              "load_code": 5,
              "name": 0,
              "sasha.local.mathiasp.me": 7,
              "sub": 6,
              "sub_code": 2
            },
            "renameByName": {}
          }
        },
        {
          "id": "sortBy",
          "options": {
            "fields": {},
            "sort": [
              {
                "field": "display_name"
              }
            ]
          }
        }
      ],
      "type": "table"
    },
    {
      "datasource": "${metrics}",
      "fieldConfig": {
        "defaults": {
          "color": {
            "mode": "thresholds"
          },
          "custom": {
            "align": "auto",
            "displayMode": "auto"
          },
          "mappings": [],
          "thresholds": {
            "mode": "absolute",
            "steps": [
              {
                "color": "green",
                "value": null
              },
              {
                "color": "red",
                "value": 80
              }
            ]
          }
        },
        "overrides": [
          {
            "matcher": {
              "id": "byName",
              "options": "State"
            },
            "properties": [
              {
                "id": "mappings",
                "value": [
                  {
                    "options": {
                      "1": {
                        "index": 0,
                        "text": "stopped"
                      },
                      "2": {
                        "index": 1,
                        "text": "start pending"
                      },
                      "3": {
                        "index": 2,
                        "text": "stop pending"
                      },
                      "4": {
                        "index": 3,
                        "text": "running"
                      },
                      "5": {
                        "index": 4,
                        "text": "continue pending"
                      },
                      "6": {
                        "index": 5,
                        "text": "pause pending"
                      },
                      "7": {
                        "index": 6,
                        "text": "paused"
                      }
                    },
                    "type": "value"
                  }
                ]
              }
            ]
          },
          {
            "matcher": {
              "id": "byName",
              "options": "Startup"
            },
            "properties": [
              {
                "id": "mappings",
                "value": [
                  {
                    "options": {
                      "0": {
                        "index": 0,
                        "text": "boot start"
                      },
                      "1": {
                        "index": 1,
                        "text": "system start"
                      },
                      "2": {
                        "index": 2,
                        "text": "auto start"
                      },
                      "3": {
                        "index": 3,
                        "text": "demand start"
                      },
                      "4": {
                        "index": 4,
                        "text": "disabled"
                      }
                    },
                    "type": "value"
                  }
                ]
              }
            ]
          }
        ]
      },
      "gridPos": {
        "h": 8,
        "w": 10,
        "x": 0,
        "y": 16
      },
      "id": 29,
      "options": {
        "showHeader": true
      },
      "pluginVersion": "8.1.0",
      "targets": [
        {
          "exemplar": true,
          "expr": "win_services_state{db=\"windows\",host=\"ESCANOR-WIN10\"}",
          "interval": "",
          "legendFormat": "",
          "refId": "A"
        }
      ],
      "title": "windows services",
      "transformations": [
        {
          "id": "reduce",
          "options": {
            "includeTimeField": false,
            "mode": "reduceFields",
            "reducers": [
              "lastNotNull"
            ]
          }
        },
        {
          "id": "labelsToFields",
          "options": {}
        },
        {
          "id": "groupBy",
          "options": {
            "fields": {
              "Value": {
                "aggregations": [
                  "lastNotNull"
                ],
                "operation": "aggregate"
              },
              "display_name": {
                "aggregations": [
                  "lastNotNull"
                ],
                "operation": "aggregate"
              },
              "renier": {
                "aggregations": [
                  "lastNotNull"
                ],
                "operation": null
              },
              "service_name": {
                "aggregations": [],
                "operation": "groupby"
              },
              "startup_mode": {
                "aggregations": [
                  "lastNotNull"
                ],
                "operation": "aggregate"
              },
              "state": {
                "aggregations": [
                  "lastNotNull"
                ],
                "operation": "aggregate"
              }
            }
          }
        },
        {
          "id": "organize",
          "options": {
            "excludeByName": {
              "Carter-AIO": true,
              "ESCANOR-WIN10": true,
              "id": true
            },
            "indexByName": {
              "ESCANOR-WIN10": 4,
              "display_name": 1,
              "id": 5,
              "service_name": 0,
              "startup_mode": 3,
              "state": 2
            },
            "renameByName": {
              "Value (lastNotNull)": "State",
              "display_name (lastNotNull)": "Display Name",
              "service_name": "Service",
              "startup_mode (lastNotNull)": "Startup",
              "state (lastNotNull)": "State"
            }
          }
        },
        {
          "id": "sortBy",
          "options": {
            "fields": {},
            "sort": [
              {
                "field": "Service"
              }
            ]
          }
        }
      ],
      "type": "table"
    },
    {
      "datasource": "${logs}",
      "gridPos": {
        "h": 8,
        "w": 10,
        "x": 10,
        "y": 16
      },
      "id": 31,
      "options": {
        "dedupStrategy": "none",
        "enableLogDetails": true,
        "prettifyLogMessage": false,
        "showCommonLabels": false,
        "showLabels": false,
        "showTime": true,
        "sortOrder": "Descending",
        "wrapLogMessage": false
      },
      "pluginVersion": "8.1.0",
      "targets": [
        {
          "expr": "{Channel=~\"Microsoft-Windows-Windows Defender.*\",host=\"$host\"} | logfmt",
          "refId": "A"
        }
      ],
      "title": "Defender logs",
      "transformations": [],
      "type": "logs"
    },
    {
      "datasource": "${metrics}",
      "fieldConfig": {
        "defaults": {
          "color": {
            "mode": "thresholds"
          },
          "custom": {
            "align": "auto",
            "displayMode": "auto"
          },
          "mappings": [],
          "thresholds": {
            "mode": "absolute",
            "steps": [
              {
                "color": "green",
                "value": null
              },
              {
                "color": "red",
                "value": 80
              }
            ]
          }
        },
        "overrides": []
      },
      "gridPos": {
        "h": 8,
        "w": 4,
        "x": 20,
        "y": 16
      },
      "id": 33,
      "options": {
        "showHeader": true
      },
      "pluginVersion": "8.1.0",
      "targets": [
        {
          "exemplar": true,
          "expr": "(diskio_read_bytes{host=\"$host\",db=\"windows\"} + diskio_read_bytes{host=\"$host\",db=\"windows\"})/ 1000000",
          "interval": "",
          "legendFormat": "{{name}}",
          "refId": "A"
        }
      ],
      "title": "Panel Title",
      "transformations": [
        {
          "id": "reduce",
          "options": {
            "reducers": [
              "lastNotNull"
            ]
          }
        }
      ],
      "type": "table"
    }
  ],
  "refresh": "",
  "schemaVersion": 30,
  "style": "dark",
  "tags": [],
  "templating": {
    "list": [
      {
        "allValue": null,
        "current": {
          "selected": false,
          "text": "KAYCI-AIO",
          "value": "KAYCI-AIO"
        },
        "datasource": null,
        "definition": "label_values(cpu_usage_idle{db=\"windows\"},host)",
        "description": null,
        "error": null,
        "hide": 0,
        "includeAll": false,
        "label": null,
        "multi": false,
        "name": "host",
        "options": [],
        "query": {
          "query": "label_values(cpu_usage_idle{db=\"windows\"},host)",
          "refId": "StandardVariableQuery"
        },
        "refresh": 1,
        "regex": "",
        "skipUrlSync": false,
        "sort": 0,
        "type": "query"
      },
      {
        "current": {
          "selected": false,
          "text": "VictoriaMetrics",
          "value": "VictoriaMetrics"
        },
        "description": null,
        "error": null,
        "hide": 0,
        "includeAll": false,
        "label": null,
        "multi": false,
        "name": "metrics",
        "options": [],
        "query": "prometheus",
        "refresh": 1,
        "regex": "",
        "skipUrlSync": false,
        "type": "datasource"
      },
      {
        "current": {
          "selected": false,
          "text": "Loki",
          "value": "Loki"
        },
        "description": null,
        "error": null,
        "hide": 0,
        "includeAll": false,
        "label": null,
        "multi": false,
        "name": "logs",
        "options": [],
        "query": "loki",
        "refresh": 1,
        "regex": "",
        "skipUrlSync": false,
        "type": "datasource"
      }
    ]
  },
  "time": {
    "from": "now-1h",
    "to": "now"
  },
  "timepicker": {},
  "timezone": "",
  "title": "Windows Metrics",
  "uid": "LqfSpKn7y",
  "version": 13
}